Visualisation
…
.panel2-tidying_eval2-auto[

```
## Warning in val_cols[col_id] <- unname(as.list(data[cols])): number of items to
## replace is not a multiple of replacement length
```

```
## # A tibble: 435 × 7
##    ID_GEOFLA CODE_DEPT NOM_DEPT NOM_RE…¹                  geometry Year  Popul…²
##        <dbl> <chr>     <chr>    <chr>           <MULTIPOLYGON [m]> <chr>   <dbl>
##  1        10 10        AUBE     CHAMPAG… (((796594 6759156, 79623… p2020  309907
##  2        10 10        AUBE     CHAMPAG… (((796594 6759156, 79623… p2017  310020
##  3        10 10        AUBE     CHAMPAG… (((796594 6759156, 79623… p2012  305606
##  4        10 10        AUBE     CHAMPAG… (((796594 6759156, 79623… p2007  300840
##  5        10 10        AUBE     CHAMPAG… (((796594 6759156, 79623… p1999  292317
##  6        11 11        AUDE     LANGUED… (((703561 6193187, 70323… p2020  372705
##  7        11 11        AUDE     LANGUED… (((703561 6193187, 70323… p2017  370260
##  8        11 11        AUDE     LANGUED… (((703561 6193187, 70323… p2012  362339
##  9        11 11        AUDE     LANGUED… (((703561 6193187, 70323… p2007  345779
## 10        11 11        AUDE     LANGUED… (((703561 6193187, 70323… p1999  309463
## # … with 425 more rows, and abbreviated variable names ¹​NOM_REGION, ²​Population
```
…
.panel2-tidying_eval2-auto[

```
## Warning in val_cols[col_id] <- unname(as.list(data[cols])): number of items to
## replace is not a multiple of replacement length
```

```
## # A tibble: 435 × 7
## # Groups:   NOM_REGION, Year [110]
##    ID_GEOFLA CODE_DEPT NOM_DEPT NOM_RE…¹                  geometry Year  Popul…²
##        <dbl> <chr>     <chr>    <chr>           <MULTIPOLYGON [m]> <chr>   <dbl>
##  1        10 10        AUBE     CHAMPAG… (((796594 6759156, 79623… p2020  309907
##  2        10 10        AUBE     CHAMPAG… (((796594 6759156, 79623… p2017  310020
##  3        10 10        AUBE     CHAMPAG… (((796594 6759156, 79623… p2012  305606
##  4        10 10        AUBE     CHAMPAG… (((796594 6759156, 79623… p2007  300840
##  5        10 10        AUBE     CHAMPAG… (((796594 6759156, 79623… p1999  292317
##  6        11 11        AUDE     LANGUED… (((703561 6193187, 70323… p2020  372705
##  7        11 11        AUDE     LANGUED… (((703561 6193187, 70323… p2017  370260
##  8        11 11        AUDE     LANGUED… (((703561 6193187, 70323… p2012  362339
##  9        11 11        AUDE     LANGUED… (((703561 6193187, 70323… p2007  345779
## 10        11 11        AUDE     LANGUED… (((703561 6193187, 70323… p1999  309463
## # … with 425 more rows, and abbreviated variable names ¹​NOM_REGION, ²​Population
```
…
.panel2-tidying_eval2-auto[

```
## Warning in val_cols[col_id] <- unname(as.list(data[cols])): number of items to
## replace is not a multiple of replacement length
```

```
## Simple feature collection with 110 features and 5 fields
## geometry type:  GEOMETRY
## dimension:      XY
## bbox:           xmin: 99226 ymin: 6049647 xmax: 1242375 ymax: 7110524
## projected CRS:  RGF93 / Lambert-93
## # A tibble: 110 × 6
## # Groups:   NOM_REGION [22]
##    NOM_REGION Year      pop                           geometry     area     dens
##    <chr>      <chr>   <dbl>                     <GEOMETRY [m]>   [km^2] [1/km^2]
##  1 ALSACE     p1999 1732588 POLYGON ((1040442 6789985, 104040…  8319.64 208.252…
##  2 ALSACE     p2007 1827248 POLYGON ((1040442 6789985, 104040…  8319.64 219.630…
##  3 ALSACE     p2012 1859869 POLYGON ((1040442 6789985, 104040…  8319.64 223.551…
##  4 ALSACE     p2017 1889589 POLYGON ((1040442 6789985, 104040…  8319.64 227.123…
##  5 ALSACE     p2020 1895811 POLYGON ((1040442 6789985, 104040…  8319.64 227.871…
##  6 AQUITAINE  p1999 2906748 MULTIPOLYGON (((428954 6200122, 4… 41783.65  69.566…
##  7 AQUITAINE  p2007 3150890 MULTIPOLYGON (((428954 6200122, 4… 41783.65  75.409…
##  8 AQUITAINE  p2012 3285970 MULTIPOLYGON (((428954 6200122, 4… 41783.65  78.642…
##  9 AQUITAINE  p2017 3414585 MULTIPOLYGON (((428954 6200122, 4… 41783.65  81.720…
## 10 AQUITAINE  p2020 3467317 MULTIPOLYGON (((428954 6200122, 4… 41783.65  82.982…
## # … with 100 more rows
```
…
.panel2-tidying_eval2-auto[

```
## Warning in val_cols[col_id] <- unname(as.list(data[cols])): number of items to
## replace is not a multiple of replacement length
```

```
## Simple feature collection with 110 features and 5 fields
## geometry type:  GEOMETRY
## dimension:      XY
## bbox:           xmin: 99226 ymin: 6049647 xmax: 1242375 ymax: 7110524
## projected CRS:  RGF93 / Lambert-93
## # A tibble: 110 × 6
## # Groups:   NOM_REGION [22]
##    NOM_REGION Year      pop                           geometry     area     dens
##    <chr>      <chr>   <dbl>                     <GEOMETRY [m]>   [km^2] [1/km^2]
##  1 ALSACE     p1999 1732588 POLYGON ((1040442 6789985, 104040…  8319.64 208.252…
##  2 ALSACE     p2007 1827248 POLYGON ((1040442 6789985, 104040…  8319.64 219.630…
##  3 ALSACE     p2012 1859869 POLYGON ((1040442 6789985, 104040…  8319.64 223.551…
##  4 ALSACE     p2017 1889589 POLYGON ((1040442 6789985, 104040…  8319.64 227.123…
##  5 ALSACE     p2020 1895811 POLYGON ((1040442 6789985, 104040…  8319.64 227.871…
##  6 AQUITAINE  p1999 2906748 MULTIPOLYGON (((428954 6200122, 4… 41783.65  69.566…
##  7 AQUITAINE  p2007 3150890 MULTIPOLYGON (((428954 6200122, 4… 41783.65  75.409…
##  8 AQUITAINE  p2012 3285970 MULTIPOLYGON (((428954 6200122, 4… 41783.65  78.642…
##  9 AQUITAINE  p2017 3414585 MULTIPOLYGON (((428954 6200122, 4… 41783.65  81.720…
## 10 AQUITAINE  p2020 3467317 MULTIPOLYGON (((428954 6200122, 4… 41783.65  82.982…
## # … with 100 more rows
```
…
```r
longline_dta <- read.table('https://raw.githubusercontent.com/MarieEtienne/MarieEtienne.github.io/master/datasets/LonglineExample.csv', 
           sep = ";", 
           header= TRUE, 
           skip = 3) %>% 
  as_tibble() %>% 
  rename(Nyellow = Nyelloweye_caught, Area = DFO_STAT_AREA_CODE,
         Lat = Lat_start , Long = Lon_start,
         soaktime = soaktime_mn) %>%
  select(Year, Area, Lat, Long, soaktime, Nyellow)
longline_dta %>% print(n=5)
```

```
## # A tibble: 210 × 6
##    Year  Area   Lat  Long soaktime Nyellow
##   <int> <int> <dbl> <dbl>    <int>   <int>
## 1  2003    12  50.8 -128.      127       6
## 2  2003    12  50.9 -128.      128       0
## 3  2003    12  50.9 -128.      127       3
## 4  2003    12  50.9 -127.      122       0
## 5  2003    12  50.9 -127.      134       2
## # … with 205 more rows
```
…
